{
  "results": [
    {
      "popularity": 79.466,
      "vote_count": 2744,
      "video": false,
      "poster_path": "/8ZX18L5m6rH5viSYpRnTSbb9eXh.jpg",
      "id": 619264,
      "adult": false,
      "backdrop_path": "/3tkDMNfM2YuIAJlvGO6rfIzAnfG.jpg",
      "original_language": "es",
      "original_title": "El hoyo",
      "genre_ids": [
        18,
        878
      ],
      "title": "The Platform",
      "vote_average": 7.1,
      "overview": "A mysterious place, an indescribable prison, a deep hole. An unknown number of levels. Two inmates living on each level. A descending platform containing food for all of them. An inhuman fight for survival, but also an opportunity for solidarity…",
      "release_date": "2019-11-08"
    },
    {
      "popularity": 79.174,
      "vote_count": 667,
      "video": false,
      "poster_path": "/33VdppGbeNxICrFUtW2WpGHvfYc.jpg",
      "id": 481848,
      "adult": false,
      "backdrop_path": "/9sXHqZTet3Zg5tgcc0hCDo8Tn35.jpg",
      "original_language": "en",
      "original_title": "The Call of the Wild",
      "genre_ids": [
        12,
        18,
        10751
      ],
      "title": "The Call of the Wild",
      "vote_average": 7,
      "overview": "Buck is a big-hearted dog whose blissful domestic life is turned upside down when he is suddenly uprooted from his California home and transplanted to the exotic wilds of the Yukon during the Gold Rush of the 1890s. As the newest rookie on a mail delivery dog sled team—and later its leader—Buck experiences the adventure of a lifetime, ultimately finding his true place in the world and becoming his own master.",
      "release_date": "2020-02-19"
    },
    {
      "popularity": 34.127,
      "vote_count": 449,
      "video": false,
      "poster_path": "/p9vCAVhDK375XyobVcKqzqzsUHE.jpg",
      "id": 501907,
      "adult": false,
      "backdrop_path": "/w0tJot6O0UtLVBRIPAdg3dQ2oNO.jpg",
      "original_language": "en",
      "original_title": "A Beautiful Day in the Neighborhood",
      "genre_ids": [
        18
      ],
      "title": "A Beautiful Day in the Neighborhood",
      "vote_average": 7.2,
      "overview": "An award-winning cynical journalist, Lloyd Vogel, begrudgingly accepts an assignment to write an Esquire profile piece on the beloved television icon Fred Rogers. After his encounter with Rogers, Vogel's perspective on life is transformed.",
      "release_date": "2019-09-07"
    },
    {
      "popularity": 29.992,
      "vote_count": 143,
      "video": false,
      "poster_path": "/8GGS0jkFFCnmdStvZED6NL6V7gd.jpg",
      "id": 502425,
      "adult": false,
      "backdrop_path": "/kolkVKNZSjhZGHwcrFU36Watpke.jpg",
      "original_language": "en",
      "original_title": "Escape From Pretoria",
      "genre_ids": [
        18,
        36,
        53
      ],
      "title": "Escape From Pretoria",
      "vote_average": 6.5,
      "overview": "South Africa, 1978. Tim Jenkin and Stephen Lee, two white political activists from the African National Congress imprisoned by the apartheid regime, put a plan in motion to escape from the infamous Pretoria Prison…",
      "release_date": "2020-03-06"
    },
    {
      "popularity": 17.141,
      "vote_count": 19,
      "video": false,
      "poster_path": "/1UHrZxcewhGydsqrRF5Z6Qgqf6i.jpg",
      "id": 617786,
      "adult": false,
      "backdrop_path": "/lxVf7wzanbz7m0mou7pUhokBYB.jpg",
      "original_language": "en",
      "original_title": "The Other Lamb",
      "genre_ids": [
        18,
        27,
        53
      ],
      "title": "The Other Lamb",
      "vote_average": 6.5,
      "overview": "A haunting and nightmarish tale that tells the story of Selah, a young girl born into a repressive cult known as the Flock. The members of the Flock – all women and female children– live in a rural compound, and are led by one man, known only as Shepherd. Selah, a daughter who is on the cusp of teenage-hood, is given the great honor of participating in the sacred ritual of the birthing of the lambs – upon which they depend for survival – where she has a shocking and otherworldly experience. She begins to have strange visions that make her question her own reality, and everything the Shepherd has taught her and her sisters.",
      "release_date": "2020-04-03"
    },
    {
      "popularity": 16.215,
      "vote_count": 1591,
      "video": false,
      "poster_path": "/icMuU0iUvctuXJ0Cr05BdEmHLen.jpg",
      "id": 6537,
      "adult": false,
      "backdrop_path": "/bEjdGHTjKEHFq3z4g606kldLDk.jpg",
      "original_language": "es",
      "original_title": "El orfanato",
      "genre_ids": [
        18,
        27,
        53
      ],
      "title": "The Orphanage",
      "vote_average": 7.2,
      "overview": "A woman brings her family back to her childhood home, which used to be an orphanage, intent on reopening it. Before long, her son starts to communicate with a new invisible friend.",
      "release_date": "2007-05-20"
    },
    {
      "popularity": 15.306,
      "vote_count": 170,
      "video": false,
      "poster_path": "/jh2xStYNXhSK5JYFUApMEqgn0yT.jpg",
      "id": 286519,
      "adult": false,
      "backdrop_path": "/7s8ruS7qYRsWPS08gEWtLMwFOAk.jpg",
      "original_language": "en",
      "original_title": "Boychoir",
      "genre_ids": [
        18,
        10402
      ],
      "title": "Boychoir",
      "vote_average": 6.8,
      "overview": "A troubled and angry 11-year-old orphan from a small Texas town, ends up at a Boy Choir school after the death of his single mother. Completely out of his element, he finds himself in a battle of wills with a demanding Choir Master who recognises a unique talent in this young boy as he pushes him to discover his creative heart and soul in music.",
      "release_date": "2014-09-04"
    },
    {
      "popularity": 15.241,
      "vote_count": 70,
      "video": false,
      "poster_path": "/41YWD0M32uo6ekBEvVrQgidyemB.jpg",
      "id": 478860,
      "adult": false,
      "backdrop_path": "/e8Cqw8U7vCcMrH1dHYZT9O01Jiy.jpg",
      "original_language": "fr",
      "original_title": "Proxima",
      "genre_ids": [
        28,
        18
      ],
      "title": "Proxima",
      "vote_average": 6.7,
      "overview": "Sarah is a French astronaut training at the European Space Agency in Cologne. She is the only woman in the arduous program. She lives alone with Stella, her seven year old daughter. Sarah feels guilty that she cannot spend more time with her child. Her love is overpowering, unsettling. When Sarah is chosen to join the crew of a year-long space mission called Proxima, it creates chaos in the mother-daughter relationship.",
      "release_date": "2019-11-27"
    },
    {
      "popularity": 14.85,
      "vote_count": 0,
      "video": false,
      "poster_path": "/niyXFhGIk4W2WTcX2Eod8vx2Mfe.jpg",
      "id": 686245,
      "adult": false,
      "backdrop_path": "/pPguXG07MDRKH1agJdw1mWzuEkP.jpg",
      "original_language": "en",
      "original_title": "Survive the Night",
      "genre_ids": [
        28,
        53
      ],
      "title": "Survive the Night",
      "vote_average": 0,
      "overview": "A disgraced doctor and his family are held hostage at their home by criminals on the run, when a robbery-gone-awry requires them to seek immediate medical attention.",
      "release_date": "2020-05-22"
    },
    {
      "popularity": 13.593,
      "vote_count": 0,
      "video": false,
      "poster_path": "/6nDRJzTXQ4fdhNowPvt0sF9qA0q.jpg",
      "id": 694919,
      "adult": false,
      "backdrop_path": "/pq0JSpwyT2URytdFG0euztQPAyR.jpg",
      "original_language": "en",
      "original_title": "Money Plane",
      "genre_ids": [
        28
      ],
      "title": "Money Plane",
      "vote_average": 0,
      "overview": "A professional thief with $40 million in debt and his family's life on the line must commit one final heist - rob a futuristic airborne casino filled with the world's most dangerous criminals.",
      "release_date": "2020-05-20"
    },
    {
      "popularity": 13.217,
      "vote_count": 1,
      "video": false,
      "poster_path": "/9AHH96n0Hav1h9PxMFhJB7dG8OE.jpg",
      "id": 469321,
      "adult": false,
      "backdrop_path": "/xcgZ705AuyuDAkaNIoVOqtLuB87.jpg",
      "original_language": "en",
      "original_title": "Dark Was the Night",
      "genre_ids": [
        18
      ],
      "title": "Dark Was the Night",
      "vote_average": 9,
      "overview": "In the aftermath of tragedy, a woman and her teenage son must forge into uncharted territory in order to move on with their lives.",
      "release_date": "2020-05-21"
    },
    {
      "popularity": 13.212,
      "vote_count": 0,
      "video": false,
      "poster_path": "/sYVECzThh0aqSyP188CbyYnAAbR.jpg",
      "id": 639250,
      "adult": false,
      "backdrop_path": "/6Bo2wXcPw4GTpLSwy92vyvW8uEh.jpg",
      "original_language": "en",
      "original_title": "The Voices",
      "genre_ids": [
        27,
        53
      ],
      "title": "The Voices",
      "vote_average": 0,
      "overview": "After a devastating breakup with her fiancé, Grace Crawford seeks sanctuary at a remote family home. Grace has a bizarre encounter with a mysterious stranger (Lin Shaye) before arriving at the house, which is now occupied by her sister, Catherine. At first it's a happy reunion, but soon it becomes clear that Catherine is suffering from paranoid schizophrenia, much like their late mother, who had taken her own life. While coming to terms with this realization, Grace uncovers a terrible secret about Catherine's estranged daughter and begins questioning her own sanity. As the lines between reality and dreams are blurred and her sister's behavior becomes increasingly erratic, Grace must desperately fight to save herself and her family before it's too late.",
      "release_date": "2020-05-12"
    },
    {
      "popularity": 10.003,
      "vote_count": 0,
      "video": false,
      "poster_path": "/gtf66XLNduxO4jYHIWMGOWvdDt5.jpg",
      "id": 669770,
      "adult": false,
      "backdrop_path": "/qK6xEaXhawKlVmQwtMO7wtdiU6Z.jpg",
      "original_language": "en",
      "original_title": "Broil",
      "genre_ids": [
        14,
        27,
        53
      ],
      "title": "Broil",
      "vote_average": 0,
      "overview": "Broil follows a dysfunctional family of demons vying to control the future of their wealth.",
      "release_date": "2020-05-20"
    },
    {
      "popularity": 9.759,
      "vote_count": 0,
      "video": false,
      "poster_path": "/st4n0FALlo0twLkSqxAvU15SKvU.jpg",
      "id": 691812,
      "adult": false,
      "backdrop_path": "/migoeK0dyDkbyY7dxMWGFY7NxAS.jpg",
      "original_language": "en",
      "original_title": "Allagash",
      "genre_ids": [
        53
      ],
      "title": "Blood and Money",
      "vote_average": 0,
      "overview": "A retired veteran hunting in Northern Maine stumbles across a dead woman and a large sum of money.",
      "release_date": "2020-05-15"
    },
    {
      "popularity": 9.669,
      "vote_count": 19,
      "video": false,
      "poster_path": "/2epgo9k2Jrs7qrTL1Rork1mDSKT.jpg",
      "id": 520900,
      "adult": false,
      "backdrop_path": "/tZZXvAnfrR58C64O3o3Ox4zUkSI.jpg",
      "original_language": "en",
      "original_title": "The Personal History of David Copperfield",
      "genre_ids": [
        18
      ],
      "title": "The Personal History of David Copperfield",
      "vote_average": 6.8,
      "overview": "A fresh and distinctive take on Charles Dickens’ semi-autobiographical masterpiece, The Personal History of David Copperfield, set in the 1840s, chronicles the life of its iconic title character as he navigates a chaotic world to find his elusive place within it. From his unhappy childhood to the discovery of his gift as a storyteller and writer, David’s journey is by turns hilarious and tragic, but always full of life, colour and humanity.",
      "release_date": "2019-11-07"
    },
    {
      "popularity": 9.017,
      "vote_count": 13,
      "video": false,
      "poster_path": "/mo3fqfe28u7EaNm8aaUaJt84rIE.jpg",
      "id": 586595,
      "adult": false,
      "backdrop_path": "/ux5QhR96TCrrTKEDVyAIIDOTqAz.jpg",
      "original_language": "en",
      "original_title": "After Midnight",
      "genre_ids": [
        18,
        27,
        10749
      ],
      "title": "After Midnight",
      "vote_average": 5.2,
      "overview": "Dealing with a girlfriend suddenly leaving is tough enough. But for Hank, heartbreak couldn’t have come at a worse time. There’s also a monster trying to break through his front door every night.",
      "release_date": "2020-02-14"
    },
    {
      "popularity": 8.955,
      "vote_count": 365,
      "video": false,
      "poster_path": "/ogBGBOhq6vozE5rqETFBcZWFXmd.jpg",
      "id": 65229,
      "adult": false,
      "backdrop_path": "/fQa5N0VPtHwMAuYAg0999gJtT2q.jpg",
      "original_language": "fr",
      "original_title": "Tomboy",
      "genre_ids": [
        18
      ],
      "title": "Tomboy",
      "vote_average": 7.3,
      "overview": "A French family with two daughters, 10-year-old Laure and 6-year-old Jeanne, moves to a new neighborhood during the summer holidays. With her tomboy ways, Laure is immediately mistaken for a boy by the local kids and passes herself off as Mickaël.",
      "release_date": "2011-04-20"
    },
    {
      "popularity": 8.917,
      "vote_count": 3,
      "video": false,
      "poster_path": "/chYWJW8Jzr7gPezw1D5uJ4MKBjr.jpg",
      "id": 653151,
      "adult": false,
      "backdrop_path": "/pjkcsNP8RvOqCaDQ0xgItcNSjeS.jpg",
      "original_language": "en",
      "original_title": "Les Misérables: The Staged Concert",
      "genre_ids": [
        10402
      ],
      "title": "Les Misérables: The Staged Concert",
      "vote_average": 7.7,
      "overview": "Seen by over 120 million people worldwide, Les Misérables is undisputedly one of the world’s most popular musicals. Coinciding with its 35th triumphant year in London’s West End, Cameron Mackintosh produced a spectacular sold-out staged concert version at the Gielgud Theatre featuring an all-star cast including Michael Ball, Alfie Boe, Carrie Hope Fletcher, Matt Lucas, and John Owen Jones. Featuring a cast and orchestra of over 65 and including the songs \"I Dreamed A Dream,\" \"Bring Him Home,\" \"One Day More,\" and \"On My Own,\" this sensational staged concert is not to be missed.",
      "release_date": "2019-12-02"
    },
    {
      "popularity": 8.774,
      "vote_count": 58,
      "video": false,
      "poster_path": "/cUrsX3QO8kxiOo8ZU2vmMwjIC1H.jpg",
      "id": 579298,
      "adult": false,
      "backdrop_path": "/bMUiKWipk7GXIdmjK4BYBjbXD8U.jpg",
      "original_language": "fr",
      "original_title": "Walter",
      "genre_ids": [
        35
      ],
      "title": "Walter",
      "vote_average": 6,
      "overview": "or Goran and his team of amateur shooters, the plan was almost perfect: to enter a hypermarket at night to rob a jeweler. But these \"broken arms\" had not anticipated the arrival of a vigil like no other: Walter, a former African warlord who will send them to hell .",
      "release_date": "2019-03-20"
    },
    {
      "popularity": 7.916,
      "vote_count": 0,
      "video": false,
      "poster_path": "/sRiyaR6zC4iytq9jxDGMlweZKnx.jpg",
      "id": 679870,
      "adult": false,
      "backdrop_path": null,
      "original_language": "en",
      "original_title": "Dreams of Darkness",
      "genre_ids": [
        27,
        53
      ],
      "title": "Dreams of Darkness",
      "vote_average": 0,
      "overview": "Devastated by the disappearance of his wife, Derek Fabry enters a nightmarish world of the occult, erotic evil, and supernatural seduction as he tries to unravel the mystery of her vanishing.",
      "release_date": "2020-05-15"
    }
  ],
  "page": 1,
  "total_results": 73,
  "dates": {
    "maximum": "2020-05-24",
    "minimum": "2020-05-09"
  },
  "total_pages": 4
}
